UserID,CustomerRefNo
JUQI-3911,1234567890
JUQI-3911,654327893
JUQI-3911,436278945
JUQI-3911,3457483920
JUQI-3911,J3OD99I3K
OORQ-0229,9D3KFOF93K
OORQ-0229,333999DDK
OORQ-0229,DJDJD9333
OORQ-0229,JE3N399D
OORQ-0229,J333UUCLLG
BAYX-0182,999FFFFKK2
BAYX-0182,EDD02MFEK
BAYX-0182,333K357DC
BAYX-0182,3DKD99KD
