UserID,CustomerRefNo
UUZZ-9984,10000
UUZZ-9984,10001
UUZZ-9984,10002
UUZZ-9984,10003
UUZZ-9984,10004
UUZZ-9984,10005
UUZZ-9984,10006
UUZZ-9984,10007
UUZZ-9984,10008
UUZZ-9984,10009
UUZZ-9984,10010
UUZZ-9984,10011
UUZZ-9984,10012
UUZZ-9984,10013
UUZZ-9984,10014
