ProductName,Industry,Category,Sub-Category,Brand,Manufacturer,CaseWeight,Packaging,ShippingCondition,QuantityperCase,Description,MinProfitMargin,Prefix1,ProductCode1,Prefix2,ProductCode2,Prefix3,ProductCode3,Image1,Image2,Image3,Image4,Image5,Image6,Image7,Image8
GLOVE NEUTRALON STRL SURG 7.5 LATEX,Medical,Protection,Gloves,ANSELL PERRY INC,ANSELL PERRY INC,50,Case,"Room Temperature, Do Not Freeze",100,GLOVE NEUTRALON STRL SURG 7.5 LATEX,40,Model Number,5375,,,,,noimage.jpg,,,,,,,
GLOVE EXAM LATEX P/F N/S MEDIUM,Medical,Protection,Gloves,ANSELL PERRY INC,ANSELL PERRY INC,50,Case,"Room Temperature, Do Not Freeze",10,GLOVE EXAM LATEX P/F N/S MEDIUM,40,Model Number,5004,,,,,noimage.jpg,,,,,,,
GLOVE NEUTRALON STRL SURG SZ 7 LTX,Medical,Protection,Gloves,ANSELL PERRY INC,ANSELL PERRY INC,50,Case,"Room Temperature, Do Not Freeze",100,GLOVE NEUTRALON STRL SURG SZ 7 LTX,40,Model Number,5370,,,,,noimage.jpg,,,,,,,
GLOVE LATEX SURG STL 7.5 MICROTOUCH,Medical,Protection,Gloves,ANSELL PERRY INC,ANSELL PERRY INC,50,Case,"Room Temperature, Do Not Freeze",200,GLOVE LATEX SURG STL 7.5 MICROTOUCH,40,Model Number,5875,,,,,noimage.jpg,,,,,,,
GLOVE LATEX SURG STL 7 MICROTOUCH,Medical,Protection,Gloves,ANSELL PERRY INC,ANSELL PERRY INC,50,Case,"Room Temperature, Do Not Freeze",200,GLOVE LATEX SURG STL 7 MICROTOUCH,40,Model Number,5870,,,,,noimage.jpg,,,,,,,
GLOVE EXAM LATEX N/S P/F SMALL,Medical,Protection,Gloves,ANSELL PERRY INC,ANSELL PERRY INC,50,Case,"Room Temperature, Do Not Freeze",10,GLOVE EXAM LATEX N/S P/F SMALL,40,Model Number,5002,,,,,noimage.jpg,,,,,,,
GLOVE NEUTRALON STR SURG 6.5 LATEX,Medical,Protection,Gloves,ANSELL PERRY INC,ANSELL PERRY INC,50,Case,"Room Temperature, Do Not Freeze",100,GLOVE NEUTRALON STR SURG 6.5 LATEX,40,Model Number,5365,,,,,noimage.jpg,,,,,,,
GLOVE NEUTRALON STRL SURG SZ 8 LTX,Medical,Protection,Gloves,ANSELL PERRY INC,ANSELL PERRY INC,50,Case,"Room Temperature, Do Not Freeze",100,GLOVE NEUTRALON STRL SURG SZ 8 LTX,40,Model Number,5380,,,,,noimage.jpg,,,,,,,
GLOVE EXAM LATES P/F N/S LARGE,Medical,Protection,Gloves,ANSELL PERRY INC,ANSELL PERRY INC,50,Case,"Room Temperature, Do Not Freeze",10,GLOVE EXAM LATES P/F N/S LARGE,40,Model Number,5006,,,,,noimage.jpg,,,,,,,
GLOVE LATEX SURG STL 8 MICROTOUCH,Medical,Protection,Gloves,ANSELL PERRY INC,ANSELL PERRY INC,50,Case,"Room Temperature, Do Not Freeze",200,GLOVE LATEX SURG STL 8 MICROTOUCH,40,Model Number,5880,,,,,noimage.jpg,,,,,,,
GLOVE ORTHO MAXXUS SZ 8 STERILE,Medical,Protection,Gloves,ANSELL PERRY INC,ANSELL PERRY INC,50,Case,"Room Temperature, Do Not Freeze",50,GLOVE ORTHO MAXXUS SZ 8 STERILE,40,Model Number,5080,,,,,noimage.jpg,,,,,,,
GLOVE LATEX SURG STL 6.5 MICROTOUCH,Medical,Protection,Gloves,ANSELL PERRY INC,ANSELL PERRY INC,50,Case,"Room Temperature, Do Not Freeze",200,GLOVE LATEX SURG STL 6.5 MICROTOUCH,40,Model Number,5865,,,,,noimage.jpg,,,,,,,
GLOVE ORTHO MAXXUS SZ 7.5 STERILE,Medical,Protection,Gloves,ANSELL PERRY INC,ANSELL PERRY INC,50,Case,"Room Temperature, Do Not Freeze",50,GLOVE ORTHO MAXXUS SZ 7.5 STERILE,40,Model Number,5075,,,,,noimage.jpg,,,,,,,
GLOVE SYNTH SURG STRL 7.5 ALLERGARD,Medical,Protection,Gloves,ANSELL PERRY INC,ANSELL PERRY INC,50,Case,"Room Temperature, Do Not Freeze",100,GLOVE SYNTH SURG STRL 7.5 ALLERGARD,40,Model Number,6175,,,,,noimage.jpg,,,,,,,
GLOVE ORTHO MAXXUS SZ 8.5 STERILE,Medical,Protection,Gloves,ANSELL PERRY INC,ANSELL PERRY INC,50,Case,"Room Temperature, Do Not Freeze",50,GLOVE ORTHO MAXXUS SZ 8.5 STERILE,40,Model Number,5085,,,,,noimage.jpg,,,,,,,
GLOVE NEUTRALON STL SURG 8.5 LATEX,Medical,Protection,Gloves,ANSELL PERRY INC,ANSELL PERRY INC,50,Case,"Room Temperature, Do Not Freeze",100,GLOVE NEUTRALON STL SURG 8.5 LATEX,40,Model Number,5385,,,,,noimage.jpg,,,,,,,
GLOVE PF LATEX SURG 7 MICROTOUCH,Medical,Protection,Gloves,ANSELL PERRY INC,ANSELL PERRY INC,50,Case,"Room Temperature, Do Not Freeze",100,GLOVE PF LATEX SURG 7 MICROTOUCH,40,Model Number,6570,,,,,noimage.jpg,,,,,,,
GLOVE NEUTRALON STR SURG SZ 6 LATEX,Medical,Protection,Gloves,ANSELL PERRY INC,ANSELL PERRY INC,50,Case,"Room Temperature, Do Not Freeze",100,GLOVE NEUTRALON STR SURG SZ 6 LATEX,40,Model Number,5360,,,,,noimage.jpg,,,,,,,
GLOVE SYNTH SURG STRL 7 ALLERGARD,Medical,Protection,Gloves,ANSELL PERRY INC,ANSELL PERRY INC,50,Case,"Room Temperature, Do Not Freeze",100,GLOVE SYNTH SURG STRL 7 ALLERGARD,40,Model Number,6170,,,,,noimage.jpg,,,,,,,
GLOVE LATEX SURG STL 8.5 MICROTOUCH,Medical,Protection,Gloves,ANSELL PERRY INC,ANSELL PERRY INC,50,Case,"Room Temperature, Do Not Freeze",200,GLOVE LATEX SURG STL 8.5 MICROTOUCH,40,Model Number,5885,,,,,noimage.jpg,,,,,,,
GLOVE DERMAPRENE STERILE SZ7.5,Medical,Protection,Gloves,ANSELL PERRY INC,ANSELL PERRY INC,50,Case,"Room Temperature, Do Not Freeze",200,GLOVE DERMAPRENE STERILE SZ7.5,40,Model Number,8515,,,,,noimage.jpg,,,,,,,
GLOVE PF LATEX SURG 6.5 MICROTOUCH,Medical,Protection,Gloves,ANSELL PERRY INC,ANSELL PERRY INC,50,Case,"Room Temperature, Do Not Freeze",100,GLOVE PF LATEX SURG 6.5 MICROTOUCH,40,Model Number,6565,,,,,noimage.jpg,,,,,,,
GLOVE DERMAPRENE STERILE SZ7,Medical,Protection,Gloves,ANSELL PERRY INC,ANSELL PERRY INC,50,Case,"Room Temperature, Do Not Freeze",200,GLOVE DERMAPRENE STERILE SZ7,40,Model Number,8514,,,,,noimage.jpg,,,,,,,
GLOVE ORTHO MAXXUS SZ 7 STERILE,Medical,Protection,Gloves,ANSELL PERRY INC,ANSELL PERRY INC,50,Case,"Room Temperature, Do Not Freeze",50,GLOVE ORTHO MAXXUS SZ 7 STERILE,40,Model Number,5070,,,,,noimage.jpg,,,,,,,
TUBING NON-STERILE 18,Medical,Protection,Gloves,ANSELL PERRY INC,ANSELL PERRY INC,50,Case,"Room Temperature, Do Not Freeze",25,TUBING NON-STERILE 18,40,Model Number,5770828,,,,,noimage.jpg,,,,,,,
GLOVE PF LATEX SURG 7.5 MICROTOUCH,Medical,Protection,Gloves,ANSELL PERRY INC,ANSELL PERRY INC,50,Case,"Room Temperature, Do Not Freeze",100,GLOVE PF LATEX SURG 7.5 MICROTOUCH,40,Model Number,6575,,,,,noimage.jpg,,,,,,,
GLOVE UTILITY LTX LRG,Medical,Protection,Gloves,ANSELL PERRY INC,ANSELL PERRY INC,50,Case,"Room Temperature, Do Not Freeze",48,GLOVE UTILITY LTX LRG,40,Model Number,5789017,,,,,noimage.jpg,,,,,,,
GLOVE EXAM NITRILE NON STER.MED,Medical,Protection,Gloves,ANSELL PERRY INC,ANSELL PERRY INC,50,Case,"Room Temperature, Do Not Freeze",10,GLOVE EXAM NITRILE NON STER.MED,40,Model Number,4004,,,,,noimage.jpg,,,,,,,
GLOVE CUT RESISTANT XLG,Medical,Protection,Gloves,ANSELL PERRY INC,ANSELL PERRY INC,50,Case,"Room Temperature, Do Not Freeze",5,GLOVE CUT RESISTANT XLG,40,Model Number,5789914,,,,,noimage.jpg,,,,,,,
GLOVE DERMAPRENE STERILE SZ8,Medical,Protection,Gloves,ANSELL PERRY INC,ANSELL PERRY INC,50,Case,"Room Temperature, Do Not Freeze",200,GLOVE DERMAPRENE STERILE SZ8,40,Model Number,8516,,,,,noimage.jpg,,,,,,,
GLOVE UTILITY LTX MED,Medical,Protection,Gloves,ANSELL PERRY INC,ANSELL PERRY INC,50,Case,"Room Temperature, Do Not Freeze",48,GLOVE UTILITY LTX MED,40,Model Number,5789016,,,,,noimage.jpg,,,,,,,
GLOVE BRN LATEX SURG 7 NEUTRALON,Medical,Protection,Gloves,ANSELL PERRY INC,ANSELL PERRY INC,50,Case,"Room Temperature, Do Not Freeze",100,GLOVE BRN LATEX SURG 7 NEUTRALON,40,Model Number,6670,,,,,noimage.jpg,,,,,,,
GLOVE SYNTH SURG STRL 8 ALLERGARD,Medical,Protection,Gloves,ANSELL PERRY INC,ANSELL PERRY INC,50,Case,"Room Temperature, Do Not Freeze",100,GLOVE SYNTH SURG STRL 8 ALLERGARD,40,Model Number,6180,,,,,noimage.jpg,,,,,,,
GLOVE LATEX SURG STRL 6 MICROTOUCH,Medical,Protection,Gloves,ANSELL PERRY INC,ANSELL PERRY INC,50,Case,"Room Temperature, Do Not Freeze",200,GLOVE LATEX SURG STRL 6 MICROTOUCH,40,Model Number,5860,,,,,noimage.jpg,,,,,,,
GLOVE PERRY X-AM LATEX EXAM  MED,Medical,Protection,Gloves,ANSELL PERRY INC,ANSELL PERRY INC,50,Case,"Room Temperature, Do Not Freeze",1000,GLOVE PERRY X-AM LATEX EXAM  MED,40,Model Number,5760802,,,,,noimage.jpg,,,,,,,
GLOVE SURG LTX MEDIGRIP STRL 7-71/2,Medical,Protection,Gloves,ANSELL PERRY INC,ANSELL PERRY INC,50,Case,"Room Temperature, Do Not Freeze",200,GLOVE SURG LTX MEDIGRIP STRL 7-71/2,40,Model Number,8325,,,,,noimage.jpg,,,,,,,
GLOVE SURGICAL H/A PWDR FREE  7 1/2,Medical,Protection,Gloves,ANSELL PERRY INC,ANSELL PERRY INC,50,Case,"Room Temperature, Do Not Freeze",200,GLOVE SURGICAL H/A PWDR FREE  7 1/2,40,Model Number,5785004,,,,,noimage.jpg,,,,,,,
GLOVE SURG LTX NO PWDR STRL 6-61/2,Medical,Protection,Gloves,ANSELL PERRY INC,ANSELL PERRY INC,50,Case,"Room Temperature, Do Not Freeze",200,GLOVE SURG LTX NO PWDR STRL 6-61/2,40,Model Number,8603,,,,,noimage.jpg,,,,,,,
GLOVE SYNTH SURG STRL 6.5 ALLERGARD,Medical,Protection,Gloves,ANSELL PERRY INC,ANSELL PERRY INC,50,Case,"Room Temperature, Do Not Freeze",100,GLOVE SYNTH SURG STRL 6.5 ALLERGARD,40,Model Number,6165,,,,,noimage.jpg,,,,,,,
GLOVE SURG LTX C WHT STRL SZ 7 1/2,Medical,Protection,Gloves,ANSELL PERRY INC,ANSELL PERRY INC,50,Case,"Room Temperature, Do Not Freeze",200,GLOVE SURG LTX C WHT STRL SZ 7 1/2,40,Model Number,5711104,,,,,noimage.jpg,,,,,,,
GLOVE CUT-RESISTANT LARGE,Medical,Protection,Gloves,ANSELL PERRY INC,ANSELL PERRY INC,50,Case,"Room Temperature, Do Not Freeze",5,GLOVE CUT-RESISTANT LARGE,40,Model Number,5789913,,,,,noimage.jpg,,,,,,,
GLOVE PF DERMA PRENE STRL 8 1/2,Medical,Protection,Gloves,ANSELL PERRY INC,ANSELL PERRY INC,50,Case,"Room Temperature, Do Not Freeze",200,GLOVE PF DERMA PRENE STRL 8 1/2,40,Model Number,8517,,,,,noimage.jpg,,,,,,,
GLOVE SURG H/A SENSI-DERM 6-61/2,Medical,Protection,Gloves,ANSELL PERRY INC,ANSELL PERRY INC,50,Case,"Room Temperature, Do Not Freeze",200,GLOVE SURG H/A SENSI-DERM 6-61/2,40,Model Number,8103,,,,,noimage.jpg,,,,,,,
GLOVE SURG H/A SENSI-DERM 7 1/2,Medical,Protection,Gloves,ANSELL PERRY INC,ANSELL PERRY INC,50,Case,"Room Temperature, Do Not Freeze",200,GLOVE SURG H/A SENSI-DERM 7 1/2,40,Model Number,8105,,,,,noimage.jpg,,,,,,,
GLOVE LATEX MICROTOUCH N/S LARGE,Medical,Protection,Gloves,ANSELL PERRY INC,ANSELL PERRY INC,50,Case,"Room Temperature, Do Not Freeze",10,GLOVE LATEX MICROTOUCH N/S LARGE,40,Model Number,5761,,,,,noimage.jpg,,,,,,,
GLOVE SURG LTX MEDIGRIP STRL 7,Medical,Protection,Gloves,ANSELL PERRY INC,ANSELL PERRY INC,50,Case,"Room Temperature, Do Not Freeze",200,GLOVE SURG LTX MEDIGRIP STRL 7,40,Model Number,8324,,,,,noimage.jpg,,,,,,,
GLOVE SURG ORTHO C BRN STRL SZ 8,Medical,Protection,Gloves,ANSELL PERRY INC,ANSELL PERRY INC,50,Case,"Room Temperature, Do Not Freeze",200,GLOVE SURG ORTHO C BRN STRL SZ 8,40,Model Number,5721315,,,,,noimage.jpg,,,,,,,
GLOVE LATEX MICROTOUCH N/S MED,Medical,Protection,Gloves,ANSELL PERRY INC,ANSELL PERRY INC,50,Case,"Room Temperature, Do Not Freeze",10,GLOVE LATEX MICROTOUCH N/S MED,40,Model Number,5741,,,,,noimage.jpg,,,,,,,
GLOVE SURGICAL H/A PWDR FREE 8,Medical,Protection,Gloves,ANSELL PERRY INC,ANSELL PERRY INC,50,Case,"Room Temperature, Do Not Freeze",200,GLOVE SURGICAL H/A PWDR FREE 8,40,Model Number,5785005,,,,,noimage.jpg,,,,,,,
GLOVE LATEX MICROTOUCH N/S SMALL,Medical,Protection,Gloves,ANSELL PERRY INC,ANSELL PERRY INC,50,Case,"Room Temperature, Do Not Freeze",10,GLOVE LATEX MICROTOUCH N/S SMALL,40,Model Number,5721,,,,,noimage.jpg,,,,,,,
GLOVE NEUTRALON STR SURG 5.5 BR LTX,Medical,Protection,Gloves,ANSELL PERRY INC,ANSELL PERRY INC,50,Case,"Room Temperature, Do Not Freeze",100,GLOVE NEUTRALON STR SURG 5.5 BR LTX,40,Model Number,5355,,,,,noimage.jpg,,,,,,,
GLOVE HOUSEKEEPING LTX 12 MEDIUM,Medical,Protection,Gloves,ANSELL PERRY INC,ANSELL PERRY INC,50,Case,"Room Temperature, Do Not Freeze",144,GLOVE HOUSEKEEPING LTX 12 MEDIUM,40,Model Number,8986,,,,,noimage.jpg,,,,,,,
GLOVE EXAM CONFORM PLUS PF LATEX MD,Medical,Protection,Gloves,ANSELL PERRY INC,ANSELL PERRY INC,50,Case,"Room Temperature, Do Not Freeze",10,GLOVE EXAM CONFORM PLUS PF LATEX MD,40,Model Number,3192,,,,,noimage.jpg,,,,,,,
GLOVE PF DERMA PRENE STR 6 1/2,Medical,Protection,Gloves,ANSELL PERRY INC,ANSELL PERRY INC,50,Case,"Room Temperature, Do Not Freeze",200,GLOVE PF DERMA PRENE STR 6 1/2,40,Model Number,8513,,,,,noimage.jpg,,,,,,,
GLOVE SURG LTX MEDIGRIP STRL 8,Medical,Protection,Gloves,ANSELL PERRY INC,ANSELL PERRY INC,50,Case,"Room Temperature, Do Not Freeze",200,GLOVE SURG LTX MEDIGRIP STRL 8,40,Model Number,8326,,,,,noimage.jpg,,,,,,,
GLOVE HOUSEKEEPING LTX 12 LARGE,Medical,Protection,Gloves,ANSELL PERRY INC,ANSELL PERRY INC,50,Case,"Room Temperature, Do Not Freeze",144,GLOVE HOUSEKEEPING LTX 12 LARGE,40,Model Number,8988,,,,,noimage.jpg,,,,,,,
GLOVE SURGICAL H/A PWDR FREE  6 1/2,Medical,Protection,Gloves,ANSELL PERRY INC,ANSELL PERRY INC,50,Case,"Room Temperature, Do Not Freeze",200,GLOVE SURGICAL H/A PWDR FREE  6 1/2,40,Model Number,5785002,,,,,noimage.jpg,,,,,,,
GLOVE SURGICAL H/A POWDER FREE 7,Medical,Protection,Gloves,ANSELL PERRY INC,ANSELL PERRY INC,50,Case,"Room Temperature, Do Not Freeze",200,GLOVE SURGICAL H/A POWDER FREE 7,40,Model Number,5785003,,,,,noimage.jpg,,,,,,,
GLOVE ORTHO MAXXUS SZ 9 STERILE,Medical,Protection,Gloves,ANSELL PERRY INC,ANSELL PERRY INC,50,Case,"Room Temperature, Do Not Freeze",50,GLOVE ORTHO MAXXUS SZ 9 STERILE,40,Model Number,5090,,,,,noimage.jpg,,,,,,,
GLOVE LATEX SURG STL 9 MICROTOUCH,Medical,Protection,Gloves,ANSELL PERRY INC,ANSELL PERRY INC,50,Case,"Room Temperature, Do Not Freeze",200,GLOVE LATEX SURG STL 9 MICROTOUCH,40,Model Number,5890,,,,,noimage.jpg,,,,,,,
GLOVE ORTHO STR BROWN 7 1/2,Medical,Protection,Gloves,ANSELL PERRY INC,ANSELL PERRY INC,50,Case,"Room Temperature, Do Not Freeze",200,GLOVE ORTHO STR BROWN 7 1/2,40,Model Number,5721314,,,,,noimage.jpg,,,,,,,
GLOVE ORTHO MAXXUS SZ 6.5 STERILE,Medical,Protection,Gloves,ANSELL PERRY INC,ANSELL PERRY INC,50,Case,"Room Temperature, Do Not Freeze",50,GLOVE ORTHO MAXXUS SZ 6.5 STERILE,40,Model Number,5065,,,,,noimage.jpg,,,,,,,
GLOVE SURGICAL LTX C WHT SZ 6 1/2,Medical,Protection,Gloves,ANSELL PERRY INC,ANSELL PERRY INC,50,Case,"Room Temperature, Do Not Freeze",200,GLOVE SURGICAL LTX C WHT SZ 6 1/2,40,Model Number,5711102,,,,,noimage.jpg,,,,,,,
GLOVE PF LATEX SURG 8 MICROTOUCH,Medical,Protection,Gloves,ANSELL PERRY INC,ANSELL PERRY INC,50,Case,"Room Temperature, Do Not Freeze",100,GLOVE PF LATEX SURG 8 MICROTOUCH,40,Model Number,6580,,,,,noimage.jpg,,,,,,,
GLOVE SURG LTX C WHT STRL SZ 8,Medical,Protection,Gloves,ANSELL PERRY INC,ANSELL PERRY INC,50,Case,"Room Temperature, Do Not Freeze",200,GLOVE SURG LTX C WHT STRL SZ 8,40,Model Number,5711105,,,,,noimage.jpg,,,,,,,
GLOVE ENCORE P/F MICRO-OPTIC 7 1/2,Medical,Protection,Gloves,ANSELL PERRY INC,ANSELL PERRY INC,50,Case,"Room Temperature, Do Not Freeze",200,GLOVE ENCORE P/F MICRO-OPTIC 7 1/2,40,Model Number,5787004,,,,,noimage.jpg,,,,,,,
GLOVE SURG H/A SENSI-DERM STRL 7,Medical,Protection,Gloves,ANSELL PERRY INC,ANSELL PERRY INC,50,Case,"Room Temperature, Do Not Freeze",200,GLOVE SURG H/A SENSI-DERM STRL 7,40,Model Number,8104,,,,,noimage.jpg,,,,,,,
GLOVE SURG LTX C WHT STRL SZ 7,Medical,Protection,Gloves,ANSELL PERRY INC,ANSELL PERRY INC,50,Case,"Room Temperature, Do Not Freeze",200,GLOVE SURG LTX C WHT STRL SZ 7,40,Model Number,5711103,,,,,noimage.jpg,,,,,,,
GLOVE SURG LTX SENSITCH STRL 7-1/2,Medical,Protection,Gloves,ANSELL PERRY INC,ANSELL PERRY INC,50,Case,"Room Temperature, Do Not Freeze",200,GLOVE SURG LTX SENSITCH STRL 7-1/2,40,Model Number,7825,,,,,noimage.jpg,,,,,,,
GOVE EXAM NITRILE NON STER.,Medical,Protection,Gloves,ANSELL PERRY INC,ANSELL PERRY INC,50,Case,"Room Temperature, Do Not Freeze",10,GOVE EXAM NITRILE NON STER.,40,Model Number,4002,,,,,noimage.jpg,,,,,,,
GLOVE ORTHO PF MAXXUS SZ 8,Medical,Protection,Gloves,ANSELL PERRY INC,ANSELL PERRY INC,50,Case,"Room Temperature, Do Not Freeze",50,GLOVE ORTHO PF MAXXUS SZ 8,40,Model Number,3980,,,,,noimage.jpg,,,,,,,
GLOVE SURG ORTHO C BRN STRL 8 1/2,Medical,Protection,Gloves,ANSELL PERRY INC,ANSELL PERRY INC,50,Case,"Room Temperature, Do Not Freeze",200,GLOVE SURG ORTHO C BRN STRL 8 1/2,40,Model Number,5721316,,,,,noimage.jpg,,,,,,,
GLOVE BRN LATEX SURG 6.5 NEUTRALON,Medical,Protection,Gloves,ANSELL PERRY INC,ANSELL PERRY INC,50,Case,"Room Temperature, Do Not Freeze",2,GLOVE BRN LATEX SURG 6.5 NEUTRALON,40,Model Number,6665,,,,,noimage.jpg,,,,,,,
GLOVE MICRO-TOUCH ULTRA PF EXAM LG,Medical,Protection,Gloves,ANSELL PERRY INC,ANSELL PERRY INC,50,Case,"Room Temperature, Do Not Freeze",10,GLOVE MICRO-TOUCH ULTRA PF EXAM LG,40,Model Number,5326,,,,,noimage.jpg,,,,,,,
GLOVE SYNTH SURG STRL 8.5 ALLERGARD,Medical,Protection,Gloves,ANSELL PERRY INC,ANSELL PERRY INC,50,Case,"Room Temperature, Do Not Freeze",100,GLOVE SYNTH SURG STRL 8.5 ALLERGARD,40,Model Number,6185,,,,,noimage.jpg,,,,,,,
GLOVE SURG LTX MEDIGRIP STRL 6-61/2,Medical,Protection,Gloves,ANSELL PERRY INC,ANSELL PERRY INC,50,Case,"Room Temperature, Do Not Freeze",200,GLOVE SURG LTX MEDIGRIP STRL 6-61/2,40,Model Number,8323,,,,,noimage.jpg,,,,,,,
GLOVE SURG LTX SENSITCH STRL 8,Medical,Protection,Gloves,ANSELL PERRY INC,ANSELL PERRY INC,50,Case,"Room Temperature, Do Not Freeze",200,GLOVE SURG LTX SENSITCH STRL 8,40,Model Number,7826,,,,,noimage.jpg,,,,,,,
GLOVE PROCD LTX X-AM N/S LG,Medical,Protection,Gloves,ANSELL PERRY INC,ANSELL PERRY INC,50,Case,"Room Temperature, Do Not Freeze",10,GLOVE PROCD LTX X-AM N/S LG,40,Model Number,5760803,,,,,noimage.jpg,,,,,,,
GLOVE UTILITY LTX SMALL,Medical,Protection,Gloves,ANSELL PERRY INC,ANSELL PERRY INC,50,Case,"Room Temperature, Do Not Freeze",48,GLOVE UTILITY LTX SMALL,40,Model Number,5789015,,,,,noimage.jpg,,,,,,,
GLOVE SURG DERMAGUARD PLUS H/A SZ 8,Medical,Protection,Gloves,ANSELL PERRY INC,ANSELL PERRY INC,50,Case,"Room Temperature, Do Not Freeze",200,GLOVE SURG DERMAGUARD PLUS H/A SZ 8,40,Model Number,5737015,,,,,noimage.jpg,,,,,,,
GLOVE SURG ORTHO C BRN C STRL SZ 7,Medical,Protection,Gloves,ANSELL PERRY INC,ANSELL PERRY INC,50,Case,"Room Temperature, Do Not Freeze",200,GLOVE SURG ORTHO C BRN C STRL SZ 7,40,Model Number,5721313,,,,,noimage.jpg,,,,,,,
GLOVE SURG LTX SENSITCH STRL 7,Medical,Protection,Gloves,ANSELL PERRY INC,ANSELL PERRY INC,50,Case,"Room Temperature, Do Not Freeze",200,GLOVE SURG LTX SENSITCH STRL 7,40,Model Number,7824,,,,,noimage.jpg,,,,,,,
GLOVE UTILITY LTX XLG,Medical,Protection,Gloves,ANSELL PERRY INC,ANSELL PERRY INC,50,Case,"Room Temperature, Do Not Freeze",48,GLOVE UTILITY LTX XLG,40,Model Number,5789018,,,,,noimage.jpg,,,,,,,
GLOVE SURGICAL LATEX STERILE 7,Medical,Protection,Gloves,ANSELL PERRY INC,ANSELL PERRY INC,50,Case,"Room Temperature, Do Not Freeze",200,GLOVE SURGICAL LATEX STERILE 7,40,Model Number,5787003,,,,,noimage.jpg,,,,,,,
GLOVE SURGICAL LATEX STERILE 8,Medical,Protection,Gloves,ANSELL PERRY INC,ANSELL PERRY INC,50,Case,"Room Temperature, Do Not Freeze",200,GLOVE SURGICAL LATEX STERILE 8,40,Model Number,5787005,,,,,noimage.jpg,,,,,,,
GLOVE STER SURGICAL ACCLAIM 7,Medical,Protection,Gloves,ANSELL PERRY INC,ANSELL PERRY INC,50,Case,"Room Temperature, Do Not Freeze",200,GLOVE STER SURGICAL ACCLAIM 7,40,Model Number,5795003,,,,,noimage.jpg,,,,,,,
BRACKET WALL,Medical,Protection,Gloves,ANSELL PERRY INC,ANSELL PERRY INC,50,Case,"Room Temperature, Do Not Freeze",24,BRACKET WALL,40,Model Number,8025,,,,,noimage.jpg,,,,,,,
GLOVE HOUSEKEEPING LTX 12 XLG,Medical,Protection,Gloves,ANSELL PERRY INC,ANSELL PERRY INC,50,Case,"Room Temperature, Do Not Freeze",144,GLOVE HOUSEKEEPING LTX 12 XLG,40,Model Number,8980,,,,,noimage.jpg,,,,,,,
GLOVE SURG MICROPTIC BRN STRL 7 1/2,Medical,Protection,Gloves,ANSELL PERRY INC,ANSELL PERRY INC,50,Case,"Room Temperature, Do Not Freeze",200,GLOVE SURG MICROPTIC BRN STRL 7 1/2,40,Model Number,5711404,,,,,noimage.jpg,,,,,,,
GLOVE ORTHO PF MAXXUS SZ 7.5,Medical,Protection,Gloves,ANSELL PERRY INC,ANSELL PERRY INC,50,Case,"Room Temperature, Do Not Freeze",2,GLOVE ORTHO PF MAXXUS SZ 7.5,40,Model Number,3975,,,,,noimage.jpg,,,,,,,
GLOVE PF LATEX SURG 9 MICROTOUCH,Medical,Protection,Gloves,ANSELL PERRY INC,ANSELL PERRY INC,50,Case,"Room Temperature, Do Not Freeze",100,GLOVE PF LATEX SURG 9 MICROTOUCH,40,Model Number,6590,,,,,noimage.jpg,,,,,,,
GLOVE SURG LTX MEDIGRIP STRL 8-81/2,Medical,Protection,Gloves,ANSELL PERRY INC,ANSELL PERRY INC,50,Case,"Room Temperature, Do Not Freeze",200,GLOVE SURG LTX MEDIGRIP STRL 8-81/2,40,Model Number,8327,,,,,noimage.jpg,,,,,,,
GLOVE NEUTRALON STRL SURG SZ 9 LATX,Medical,Protection,Gloves,ANSELL PERRY INC,ANSELL PERRY INC,50,Case,"Room Temperature, Do Not Freeze",100,GLOVE NEUTRALON STRL SURG SZ 9 LATX,40,Model Number,5390,,,,,noimage.jpg,,,,,,,
GLOVE MICRO-TOUCH ULTRA PF EXAM SM,Medical,Protection,Gloves,ANSELL PERRY INC,ANSELL PERRY INC,50,Case,"Room Temperature, Do Not Freeze",10,GLOVE MICRO-TOUCH ULTRA PF EXAM SM,40,Model Number,5322,,,,,noimage.jpg,,,,,,,
GLOVE SURG DERMAGUARD PLUS H/A SZ 6,Medical,Protection,Gloves,ANSELL PERRY INC,ANSELL PERRY INC,50,Case,"Room Temperature, Do Not Freeze",200,GLOVE SURG DERMAGUARD PLUS H/A SZ 6,40,Model Number,5738011,,,,,noimage.jpg,,,,,,,
GLOVE SURG LTX C WHT STRL 6,Medical,Protection,Gloves,ANSELL PERRY INC,ANSELL PERRY INC,50,Case,"Room Temperature, Do Not Freeze",200,GLOVE SURG LTX C WHT STRL 6,40,Model Number,5711101,,,,,noimage.jpg,,,,,,,
GLOVE SURG ORTHO C BRN STRL 6 1/2,Medical,Protection,Gloves,ANSELL PERRY INC,ANSELL PERRY INC,50,Case,"Room Temperature, Do Not Freeze",200,GLOVE SURG ORTHO C BRN STRL 6 1/2,40,Model Number,5721312,,,,,noimage.jpg,,,,,,,
GLOVE EXAM LTX CNFRM SGL STRL MD,Medical,Protection,Gloves,ANSELL PERRY INC,ANSELL PERRY INC,50,Case,"Room Temperature, Do Not Freeze",800,GLOVE EXAM LTX CNFRM SGL STRL MD,40,Model Number,7861,,,,,noimage.jpg,,,,,,,
GLOVE EXTRA PROTECTION MD 7-71/2,Medical,Protection,Gloves,ANSELL PERRY INC,ANSELL PERRY INC,50,Case,"Room Temperature, Do Not Freeze",100,GLOVE EXTRA PROTECTION MD 7-71/2,40,Model Number,9205,,,,,noimage.jpg,,,,,,,
GLOVE MICRO TOUCH PWDRFREE EXAM MED,Medical,Protection,Gloves,ANSELL PERRY INC,ANSELL PERRY INC,50,Case,"Room Temperature, Do Not Freeze",10,GLOVE MICRO TOUCH PWDRFREE EXAM MED,40,Model Number,5274,,,,,noimage.jpg,,,,,,,
GLOVE EXAM LTX REG C N/S VHA MD,Medical,Protection,Gloves,ANSELL PERRY INC,ANSELL PERRY INC,50,Case,"Room Temperature, Do Not Freeze",2000,GLOVE EXAM LTX REG C N/S VHA MD,40,Model Number,7857,,,,,noimage.jpg,,,,,,,
GLOVE SURG POWDER FREE 7 1/2,Medical,Protection,Gloves,ANSELL PERRY INC,ANSELL PERRY INC,50,Case,"Room Temperature, Do Not Freeze",200,GLOVE SURG POWDER FREE 7 1/2,40,Model Number,5717004,,,,,noimage.jpg,,,,,,,
TUBING 613 SZ 1/2,Medical,Protection,Gloves,ANSELL PERRY INC,ANSELL PERRY INC,50,Case,"Room Temperature, Do Not Freeze",1,TUBING 613 SZ 1/2,40,Model Number,5770824,,,,,noimage.jpg,,,,,,,
GLOVE PF LATEX SURG 8.5 MICROTOUCH,Medical,Protection,Gloves,ANSELL PERRY INC,ANSELL PERRY INC,50,Case,"Room Temperature, Do Not Freeze",100,GLOVE PF LATEX SURG 8.5 MICROTOUCH,40,Model Number,6585,,,,,noimage.jpg,,,,,,,
GLOVE ORTHO PF MAXXUS SZ 8.5,Medical,Protection,Gloves,ANSELL PERRY INC,ANSELL PERRY INC,50,Case,"Room Temperature, Do Not Freeze",2,GLOVE ORTHO PF MAXXUS SZ 8.5,40,Model Number,3985,,,,,noimage.jpg,,,,,,,
GLOVE EXAM NITRILE NON-STRL MED,Medical,Protection,Gloves,ANSELL PERRY INC,ANSELL PERRY INC,50,Case,"Room Temperature, Do Not Freeze",10,GLOVE EXAM NITRILE NON-STRL MED,40,Model Number,3552,,,,,noimage.jpg,,,,,,,
GLOVE SURG LTX NO PWDR STRL 7,Medical,Protection,Gloves,ANSELL PERRY INC,ANSELL PERRY INC,50,Case,"Room Temperature, Do Not Freeze",200,GLOVE SURG LTX NO PWDR STRL 7,40,Model Number,8604,,,,,noimage.jpg,,,,,,,
GLOVE SURG LTX NO PWDR STRL 7-71/2,Medical,Protection,Gloves,ANSELL PERRY INC,ANSELL PERRY INC,50,Case,"Room Temperature, Do Not Freeze",200,GLOVE SURG LTX NO PWDR STRL 7-71/2,40,Model Number,8605,,,,,noimage.jpg,,,,,,,
GLOVE SURGICAL H/A PWDR FREE  8 1/2,Medical,Protection,Gloves,ANSELL PERRY INC,ANSELL PERRY INC,50,Case,"Room Temperature, Do Not Freeze",200,GLOVE SURGICAL H/A PWDR FREE  8 1/2,40,Model Number,5785006,,,,,noimage.jpg,,,,,,,
GLOVE SURGICAL LATEX STERILE 6,Medical,Protection,Gloves,ANSELL PERRY INC,ANSELL PERRY INC,50,Case,"Room Temperature, Do Not Freeze",200,GLOVE SURGICAL LATEX STERILE 6,40,Model Number,5787001,,,,,noimage.jpg,,,,,,,
GLOVE SURGICAL LATEX STERILE 6 1/2,Medical,Protection,Gloves,ANSELL PERRY INC,ANSELL PERRY INC,50,Case,"Room Temperature, Do Not Freeze",200,GLOVE SURGICAL LATEX STERILE 6 1/2,40,Model Number,5787002,,,,,noimage.jpg,,,,,,,
GLOVE SURGICAL LATEX STERILE 8 1/2,Medical,Protection,Gloves,ANSELL PERRY INC,ANSELL PERRY INC,50,Case,"Room Temperature, Do Not Freeze",200,GLOVE SURGICAL LATEX STERILE 8 1/2,40,Model Number,5787006,,,,,noimage.jpg,,,,,,,
GLOVE STER SURGICAL ACCLAIM 6 1/2,Medical,Protection,Gloves,ANSELL PERRY INC,ANSELL PERRY INC,50,Case,"Room Temperature, Do Not Freeze",200,GLOVE STER SURGICAL ACCLAIM 6 1/2,40,Model Number,5795002,,,,,noimage.jpg,,,,,,,
TUBING PENROSE STERILE 18X1/2,Medical,Protection,Gloves,ANSELL PERRY INC,ANSELL PERRY INC,50,Case,"Room Temperature, Do Not Freeze",200,TUBING PENROSE STERILE 18X1/2,40,Model Number,5771124,,,,,noimage.jpg,,,,,,,
GLOVE SURG LTX SENTSITCH STRL 6 1/2,Medical,Protection,Gloves,ANSELL PERRY INC,ANSELL PERRY INC,50,Case,"Room Temperature, Do Not Freeze",200,GLOVE SURG LTX SENTSITCH STRL 6 1/2,40,Model Number,7823,,,,,noimage.jpg,,,,,,,
GLOVE SURG MICROPTIC C BRN STRL SZ7,Medical,Protection,Gloves,ANSELL PERRY INC,ANSELL PERRY INC,50,Case,"Room Temperature, Do Not Freeze",200,GLOVE SURG MICROPTIC C BRN STRL SZ7,40,Model Number,5711403,,,,,noimage.jpg,,,,,,,
GLOVE ORTHO PF MAXXUS SZ 7,Medical,Protection,Gloves,ANSELL PERRY INC,ANSELL PERRY INC,50,Case,"Room Temperature, Do Not Freeze",2,GLOVE ORTHO PF MAXXUS SZ 7,40,Model Number,3970,,,,,noimage.jpg,,,,,,,
GLOVE SURG DERMAGUARD PLUS H/A 71/2,Medical,Protection,Gloves,ANSELL PERRY INC,ANSELL PERRY INC,50,Case,"Room Temperature, Do Not Freeze",200,GLOVE SURG DERMAGUARD PLUS H/A 71/2,40,Model Number,5738014,,,,,noimage.jpg,,,,,,,
GLOVE SURG H/A SENSI-DERM STRL 8,Medical,Protection,Gloves,ANSELL PERRY INC,ANSELL PERRY INC,50,Case,"Room Temperature, Do Not Freeze",200,GLOVE SURG H/A SENSI-DERM STRL 8,40,Model Number,8106,,,,,noimage.jpg,,,,,,,
GLOVE ORTHO ULTRA THICK SURGICAL 9,Medical,Protection,Gloves,ANSELL PERRY INC,ANSELL PERRY INC,50,Case,"Room Temperature, Do Not Freeze",200,GLOVE ORTHO ULTRA THICK SURGICAL 9,40,Model Number,5721317,,,,,noimage.jpg,,,,,,,
TUBING PENROSE STERILE 18X1/4,Medical,Protection,Gloves,ANSELL PERRY INC,ANSELL PERRY INC,50,Case,"Room Temperature, Do Not Freeze",200,TUBING PENROSE STERILE 18X1/4,40,Model Number,5771121,,,,,noimage.jpg,,,,,,,
"TUBING PENROSE STERILE 12   1/4""",Medical,Protection,Gloves,ANSELL PERRY INC,ANSELL PERRY INC,50,Case,"Room Temperature, Do Not Freeze",200,"TUBING PENROSE STERILE 12   1/4""",40,Model Number,5771111,,,,,noimage.jpg,,,,,,,
GLOVE LTX STL XTENDA CUFF SZ 7,Medical,Protection,Gloves,ANSELL PERRY INC,ANSELL PERRY INC,50,Case,"Room Temperature, Do Not Freeze",100,GLOVE LTX STL XTENDA CUFF SZ 7,40,Model Number,5721123,,,,,noimage.jpg,,,,,,,
GLOVE EXAM CONFORM PLUS PF LATEX S,Medical,Protection,Gloves,ANSELL PERRY INC,ANSELL PERRY INC,50,Case,"Room Temperature, Do Not Freeze",10,GLOVE EXAM CONFORM PLUS PF LATEX S,40,Model Number,3191,,,,,noimage.jpg,,,,,,,
GLOVE MICRO-TOUCH ULTRA PF EXAM MD,Medical,Protection,Gloves,ANSELL PERRY INC,ANSELL PERRY INC,50,Case,"Room Temperature, Do Not Freeze",10,GLOVE MICRO-TOUCH ULTRA PF EXAM MD,40,Model Number,5324,,,,,noimage.jpg,,,,,,,
GLOVE SURGICAL 7.5 STR,Medical,Protection,Gloves,ANSELL PERRY INC,ANSELL PERRY INC,50,Case,"Room Temperature, Do Not Freeze",200,GLOVE SURGICAL 7.5 STR,40,Model Number,11104,,,,,noimage.jpg,,,,,,,
TUBING PENROSE STERILE 18X1,Medical,Protection,Gloves,ANSELL PERRY INC,ANSELL PERRY INC,50,Case,"Room Temperature, Do Not Freeze",200,TUBING PENROSE STERILE 18X1,40,Model Number,5771128,,,,,noimage.jpg,,,,,,,
"GLV,SYNTHETIC POWDER FREE 8",Medical,Protection,Gloves,ANSELL PERRY INC,ANSELL PERRY INC,50,Case,"Room Temperature, Do Not Freeze",200,"GLV,SYNTHETIC POWDER FREE 8",40,Model Number,5785505,,,,,noimage.jpg,,,,,,,
GLOVE PF LATEX SURG 6 MICROTOUCH,Medical,Protection,Gloves,ANSELL PERRY INC,ANSELL PERRY INC,50,Case,"Room Temperature, Do Not Freeze",100,GLOVE PF LATEX SURG 6 MICROTOUCH,40,Model Number,6560,,,,,noimage.jpg,,,,,,,
GLOVE ATTENUATION RADIATION 7 1/2,Medical,Protection,Gloves,ANSELL PERRY INC,ANSELL PERRY INC,50,Case,"Room Temperature, Do Not Freeze",5,GLOVE ATTENUATION RADIATION 7 1/2,40,Model Number,5789034,,,,,noimage.jpg,,,,,,,
GLOVE ATTENUATION RADIATION 8,Medical,Protection,Gloves,ANSELL PERRY INC,ANSELL PERRY INC,50,Case,"Room Temperature, Do Not Freeze",5,GLOVE ATTENUATION RADIATION 8,40,Model Number,5789035,,,,,noimage.jpg,,,,,,,
GLOVE MICRO TOUCH PWDR-FREE EXAM LG,Medical,Protection,Gloves,ANSELL PERRY INC,ANSELL PERRY INC,50,Case,"Room Temperature, Do Not Freeze",10,GLOVE MICRO TOUCH PWDR-FREE EXAM LG,40,Model Number,5276,,,,,noimage.jpg,,,,,,,
GLOVE PF DERMA PRENE STR SZ6,Medical,Protection,Gloves,ANSELL PERRY INC,ANSELL PERRY INC,50,Case,"Room Temperature, Do Not Freeze",200,GLOVE PF DERMA PRENE STR SZ6,40,Model Number,8512,,,,,noimage.jpg,,,,,,,
GLOVE DERMAPRENE POWDER FREE SZ9,Medical,Protection,Gloves,ANSELL PERRY INC,ANSELL PERRY INC,50,Case,"Room Temperature, Do Not Freeze",200,GLOVE DERMAPRENE POWDER FREE SZ9,40,Model Number,8518,,,,,noimage.jpg,,,,,,,
"TUBING PENROSE STERILE 12     7/8""",Medical,Protection,Gloves,ANSELL PERRY INC,ANSELL PERRY INC,50,Case,"Room Temperature, Do Not Freeze",4,"TUBING PENROSE STERILE 12     7/8""",40,Model Number,5771117,,,,,noimage.jpg,,,,,,,
GLOVE EXAM CONFORM NL PF SYNTHE S,Medical,Protection,Gloves,ANSELL PERRY INC,ANSELL PERRY INC,50,Case,"Room Temperature, Do Not Freeze",10,GLOVE EXAM CONFORM NL PF SYNTHE S,40,Model Number,3101,,,,,noimage.jpg,,,,,,,
GLOVE X-AM OVERALL TEXTURE P.F.MED,Medical,Protection,Gloves,ANSELL PERRY INC,ANSELL PERRY INC,50,Case,"Room Temperature, Do Not Freeze",1000,GLOVE X-AM OVERALL TEXTURE P.F.MED,40,Model Number,3182,,,,,noimage.jpg,,,,,,,
GLOVE EXAM CONFORM PLUS PF LATEX LG,Medical,Protection,Gloves,ANSELL PERRY INC,ANSELL PERRY INC,50,Case,"Room Temperature, Do Not Freeze",10,GLOVE EXAM CONFORM PLUS PF LATEX LG,40,Model Number,3193,,,,,noimage.jpg,,,,,,,
GLOVE ULTRALON SURG PF LATEX SZ 6.5,Medical,Protection,Gloves,ANSELL PERRY INC,ANSELL PERRY INC,50,Case,"Room Temperature, Do Not Freeze",100,GLOVE ULTRALON SURG PF LATEX SZ 6.5,40,Model Number,3265,,,,,noimage.jpg,,,,,,,
GLOVE ULTRALON SURG PF LATEX SZ 7,Medical,Protection,Gloves,ANSELL PERRY INC,ANSELL PERRY INC,50,Case,"Room Temperature, Do Not Freeze",100,GLOVE ULTRALON SURG PF LATEX SZ 7,40,Model Number,3270,,,,,noimage.jpg,,,,,,,
GLOVE ULTRALON SURG PF LATEX 7.5,Medical,Protection,Gloves,ANSELL PERRY INC,ANSELL PERRY INC,50,Case,"Room Temperature, Do Not Freeze",100,GLOVE ULTRALON SURG PF LATEX 7.5,40,Model Number,3275,,,,,noimage.jpg,,,,,,,
GLOVE ULTRALON SURG PF LATEX SZ 8.5,Medical,Protection,Gloves,ANSELL PERRY INC,ANSELL PERRY INC,50,Case,"Room Temperature, Do Not Freeze",100,GLOVE ULTRALON SURG PF LATEX SZ 8.5,40,Model Number,3285,,,,,noimage.jpg,,,,,,,
GLOVE SURG POWDER FREE,Medical,Protection,Gloves,ANSELL PERRY INC,ANSELL PERRY INC,50,Case,"Room Temperature, Do Not Freeze",200,GLOVE SURG POWDER FREE,40,Model Number,5717003,,,,,noimage.jpg,,,,,,,
GLOVE EXAM NITRILE NON-STRL SM,Medical,Protection,Gloves,ANSELL PERRY INC,ANSELL PERRY INC,50,Case,"Room Temperature, Do Not Freeze",10,GLOVE EXAM NITRILE NON-STRL SM,40,Model Number,3551,,,,,noimage.jpg,,,,,,,
GLOVE DERMACLEAN X-AM PF SINGLES MD,Medical,Protection,Gloves,ANSELL PERRY INC,ANSELL PERRY INC,50,Case,"Room Temperature, Do Not Freeze",400,GLOVE DERMACLEAN X-AM PF SINGLES MD,40,Model Number,3282,,,,,noimage.jpg,,,,,,,
GLOVE SURG LTX NO PWDR STRL 8,Medical,Protection,Gloves,ANSELL PERRY INC,ANSELL PERRY INC,50,Case,"Room Temperature, Do Not Freeze",200,GLOVE SURG LTX NO PWDR STRL 8,40,Model Number,8606,,,,,noimage.jpg,,,,,,,
GLOVE SURG LTX NO PWDR STERILE 9,Medical,Protection,Gloves,ANSELL PERRY INC,ANSELL PERRY INC,50,Case,"Room Temperature, Do Not Freeze",200,GLOVE SURG LTX NO PWDR STERILE 9,40,Model Number,8608,,,,,noimage.jpg,,,,,,,
GLOVE LTX STL XTENDA CUFF 7 1/2,Medical,Protection,Gloves,ANSELL PERRY INC,ANSELL PERRY INC,50,Case,"Room Temperature, Do Not Freeze",100,GLOVE LTX STL XTENDA CUFF 7 1/2,40,Model Number,5721124,,,,,noimage.jpg,,,,,,,
GLOVE SURGICAL H/A PWDR FREE 6,Medical,Protection,Gloves,ANSELL PERRY INC,ANSELL PERRY INC,50,Case,"Room Temperature, Do Not Freeze",200,GLOVE SURGICAL H/A PWDR FREE 6,40,Model Number,5785001,,,,,noimage.jpg,,,,,,,
GLOVE SURGICAL LATEX STERILE 9,Medical,Protection,Gloves,ANSELL PERRY INC,ANSELL PERRY INC,50,Case,"Room Temperature, Do Not Freeze",200,GLOVE SURGICAL LATEX STERILE 9,40,Model Number,5787007,,,,,noimage.jpg,,,,,,,
GLOVE ENCORE P/F ULTRA THICK 8 1/2,Medical,Protection,Gloves,ANSELL PERRY INC,ANSELL PERRY INC,50,Case,"Room Temperature, Do Not Freeze",200,GLOVE ENCORE P/F ULTRA THICK 8 1/2,40,Model Number,5788006,,,,,noimage.jpg,,,,,,,
GLOVE STER SURGICAL ACCLAIM 8,Medical,Protection,Gloves,ANSELL PERRY INC,ANSELL PERRY INC,50,Case,"Room Temperature, Do Not Freeze",200,GLOVE STER SURGICAL ACCLAIM 8,40,Model Number,5795005,,,,,noimage.jpg,,,,,,,
GLOVE HOUSEKEEPING LTX 12 SMALL,Medical,Protection,Gloves,ANSELL PERRY INC,ANSELL PERRY INC,50,Case,"Room Temperature, Do Not Freeze",144,GLOVE HOUSEKEEPING LTX 12 SMALL,40,Model Number,8984,,,,,noimage.jpg,,,,,,,
GLOVE LATEX EXAM UNISIZE,Medical,Protection,Gloves,ANSELL PERRY INC,ANSELL PERRY INC,50,Case,"Room Temperature, Do Not Freeze",1000,GLOVE LATEX EXAM UNISIZE,40,Model Number,5768006,,,,,noimage.jpg,,,,,,,
GLOVE EXTRA PROTECTION LG 8-81/2,Medical,Protection,Gloves,ANSELL PERRY INC,ANSELL PERRY INC,50,Case,"Room Temperature, Do Not Freeze",100,GLOVE EXTRA PROTECTION LG 8-81/2,40,Model Number,9207,,,,,noimage.jpg,,,,,,,
GLOVE LATEX SURG STL 5.5 MICROTOUCH,Medical,Protection,Gloves,ANSELL PERRY INC,ANSELL PERRY INC,50,Case,"Room Temperature, Do Not Freeze",200,GLOVE LATEX SURG STL 5.5 MICROTOUCH,40,Model Number,5855,,,,,noimage.jpg,,,,,,,
GLOVE SURG MICROPTIC C BRN 6-1/2,Medical,Protection,Gloves,ANSELL PERRY INC,ANSELL PERRY INC,50,Case,"Room Temperature, Do Not Freeze",200,GLOVE SURG MICROPTIC C BRN 6-1/2,40,Model Number,5711402,,,,,noimage.jpg,,,,,,,
GLOVE SURG LTX C WHT STRL SZ 8 1/2,Medical,Protection,Gloves,ANSELL PERRY INC,ANSELL PERRY INC,50,Case,"Room Temperature, Do Not Freeze",200,GLOVE SURG LTX C WHT STRL SZ 8 1/2,40,Model Number,5711106,,,,,noimage.jpg,,,,,,,
GLOVE SURG LTX MEDIGRIP STRL 6,Medical,Protection,Gloves,ANSELL PERRY INC,ANSELL PERRY INC,50,Case,"Room Temperature, Do Not Freeze",200,GLOVE SURG LTX MEDIGRIP STRL 6,40,Model Number,8322,,,,,noimage.jpg,,,,,,,
GLOVE SURG DERMAGUARD PLUS H/A SZ 7,Medical,Protection,Gloves,ANSELL PERRY INC,ANSELL PERRY INC,50,Case,"Room Temperature, Do Not Freeze",200,GLOVE SURG DERMAGUARD PLUS H/A SZ 7,40,Model Number,5737013,,,,,noimage.jpg,,,,,,,
GLOVE SURG DERMAGUARD PLUS H/A 71/2,Medical,Protection,Gloves,ANSELL PERRY INC,ANSELL PERRY INC,50,Case,"Room Temperature, Do Not Freeze",200,GLOVE SURG DERMAGUARD PLUS H/A 71/2,40,Model Number,5737014,,,,,noimage.jpg,,,,,,,
GLOVE X-AM OVERALL TEXTURE P.F.LG,Medical,Protection,Gloves,ANSELL PERRY INC,ANSELL PERRY INC,50,Case,"Room Temperature, Do Not Freeze",1000,GLOVE X-AM OVERALL TEXTURE P.F.LG,40,Model Number,3183,,,,,noimage.jpg,,,,,,,
GLOVE EXAM LTX CNFRM SGL STRL LG,Medical,Protection,Gloves,ANSELL PERRY INC,ANSELL PERRY INC,50,Case,"Room Temperature, Do Not Freeze",800,GLOVE EXAM LTX CNFRM SGL STRL LG,40,Model Number,7862,,,,,noimage.jpg,,,,,,,
GLOVE PROCD LTX X-AM N/S SM,Medical,Protection,Gloves,ANSELL PERRY INC,ANSELL PERRY INC,50,Case,"Room Temperature, Do Not Freeze",1000,GLOVE PROCD LTX X-AM N/S SM,40,Model Number,5760801,,,,,noimage.jpg,,,,,,,
GLOVE EXTRA PROTECTION SM 6-61/2,Medical,Protection,Gloves,ANSELL PERRY INC,ANSELL PERRY INC,50,Case,"Room Temperature, Do Not Freeze",100,GLOVE EXTRA PROTECTION SM 6-61/2,40,Model Number,9203,,,,,noimage.jpg,,,,,,,
GLOVE EXAM LTX REG C N/S VHA LG,Medical,Protection,Gloves,ANSELL PERRY INC,ANSELL PERRY INC,50,Case,"Room Temperature, Do Not Freeze",20,GLOVE EXAM LTX REG C N/S VHA LG,40,Model Number,7858,,,,,noimage.jpg,,,,,,,
GLOVE SYNTH SURG STRL 6 ALLERGARD,Medical,Protection,Gloves,ANSELL PERRY INC,ANSELL PERRY INC,50,Case,"Room Temperature, Do Not Freeze",100,GLOVE SYNTH SURG STRL 6 ALLERGARD,40,Model Number,6160,,,,,noimage.jpg,,,,,,,
GLOVE EXAM NITRILE NON-STRL LG,Medical,Protection,Gloves,ANSELL PERRY INC,ANSELL PERRY INC,50,Case,"Room Temperature, Do Not Freeze",10,GLOVE EXAM NITRILE NON-STRL LG,40,Model Number,3553,,,,,noimage.jpg,,,,,,,
TUBING 613 SZ 5/8,Medical,Protection,Gloves,ANSELL PERRY INC,ANSELL PERRY INC,50,Case,"Room Temperature, Do Not Freeze",25,TUBING 613 SZ 5/8,40,Model Number,5770825,,,,,noimage.jpg,,,,,,,
GLOVE EXAM NTR PF XL 100S,Medical,Protection,Gloves,ANSELL PERRY INC,ANSELL PERRY INC,50,Case,"Room Temperature, Do Not Freeze",10,GLOVE EXAM NTR PF XL 100S,40,Model Number,4008,,,,,noimage.jpg,,,,,,,
GLOVE POLY-D FOOD SERVICE SMALL,Medical,Protection,Gloves,ANSELL PERRY INC,ANSELL PERRY INC,50,Case,"Room Temperature, Do Not Freeze",10,GLOVE POLY-D FOOD SERVICE SMALL,40,Model Number,925267,,,,,noimage.jpg,,,,,,,
GLOVE NITRA-TEX EP EXAM TEXTURED PF,Medical,Protection,Gloves,ANSELL PERRY INC,ANSELL PERRY INC,50,Case,"Room Temperature, Do Not Freeze",500,GLOVE NITRA-TEX EP EXAM TEXTURED PF,40,Model Number,3662,,,,,noimage.jpg,,,,,,,
GLOVE NITRA-TEX EP EXAM TEXTURED PF,Medical,Protection,Gloves,ANSELL PERRY INC,ANSELL PERRY INC,50,Case,"Room Temperature, Do Not Freeze",500,GLOVE NITRA-TEX EP EXAM TEXTURED PF,40,Model Number,3663,,,,,noimage.jpg,,,,,,,
GLOVE SURG LTX SENSITCH STRL 8 1/2,Medical,Protection,Gloves,ANSELL PERRY INC,ANSELL PERRY INC,50,Case,"Room Temperature, Do Not Freeze",200,GLOVE SURG LTX SENSITCH STRL 8 1/2,40,Model Number,7827,,,,,noimage.jpg,,,,,,,
GLOVE X-AM OVERALL TEXTURE P.F.SM,Medical,Protection,Gloves,ANSELL PERRY INC,ANSELL PERRY INC,50,Case,"Room Temperature, Do Not Freeze",1000,GLOVE X-AM OVERALL TEXTURE P.F.SM,40,Model Number,3181,,,,,noimage.jpg,,,,,,,
GLOVE X-AM OVERALL TEXTURE P.F.X-LG,Medical,Protection,Gloves,ANSELL PERRY INC,ANSELL PERRY INC,50,Case,"Room Temperature, Do Not Freeze",10,GLOVE X-AM OVERALL TEXTURE P.F.X-LG,40,Model Number,3184,,,,,noimage.jpg,,,,,,,
GLOVE DENTAL LTX N/S WHT SZ 7,Medical,Protection,Gloves,ANSELL PERRY INC,ANSELL PERRY INC,50,Case,"Room Temperature, Do Not Freeze",200,GLOVE DENTAL LTX N/S WHT SZ 7,40,Model Number,5710703,,,,,noimage.jpg,,,,,,,
GLOVE DENTAL LTX 8,Medical,Protection,Gloves,ANSELL PERRY INC,ANSELL PERRY INC,50,Case,"Room Temperature, Do Not Freeze",200,GLOVE DENTAL LTX 8,40,Model Number,5710705,,,,,noimage.jpg,,,,,,,
GLOVE SURG NATURAL C CREAM STRL SZ8,Medical,Protection,Gloves,ANSELL PERRY INC,ANSELL PERRY INC,50,Case,"Room Temperature, Do Not Freeze",200,GLOVE SURG NATURAL C CREAM STRL SZ8,40,Model Number,5717005,,,,,noimage.jpg,,,,,,,
GLOVE AUTOPSY XHVY N/S SZ 7 1/2,Medical,Protection,Gloves,ANSELL PERRY INC,ANSELL PERRY INC,50,Case,"Room Temperature, Do Not Freeze",4,GLOVE AUTOPSY XHVY N/S SZ 7 1/2,40,Model Number,5720114,,,,,noimage.jpg,,,,,,,
GLOVE PROCEDURE LTX X-AM SGL MED,Medical,Protection,Gloves,ANSELL PERRY INC,ANSELL PERRY INC,50,Case,"Room Temperature, Do Not Freeze",200,GLOVE PROCEDURE LTX X-AM SGL MED,40,Model Number,5761102,,,,,noimage.jpg,,,,,,,
GLOVE ORTHO MAXXUS SZ 5 1/2,Medical,Protection,Gloves,ANSELL PERRY INC,ANSELL PERRY INC,50,Case,"Room Temperature, Do Not Freeze",2,GLOVE ORTHO MAXXUS SZ 5 1/2,40,Model Number,5055,,,,,noimage.jpg,,,,,,,
GLOVE SURG LTX C BRN STRL SZ 8,Medical,Protection,Gloves,ANSELL PERRY INC,ANSELL PERRY INC,50,Case,"Room Temperature, Do Not Freeze",200,GLOVE SURG LTX C BRN STRL SZ 8,40,Model Number,5711115,,,,,noimage.jpg,,,,,,,
GLOVE SURG LTX NO PWDR STRL 6,Medical,Protection,Gloves,ANSELL PERRY INC,ANSELL PERRY INC,50,Case,"Room Temperature, Do Not Freeze",200,GLOVE SURG LTX NO PWDR STRL 6,40,Model Number,8602,,,,,noimage.jpg,,,,,,,
GLOVE LATEX MICROTOUCH STERILE MED,Medical,Protection,Gloves,ANSELL PERRY INC,ANSELL PERRY INC,50,Case,"Room Temperature, Do Not Freeze",200,GLOVE LATEX MICROTOUCH STERILE MED,40,Model Number,5641,,,,,noimage.jpg,,,,,,,
GLOVE CUT-RESISTANT SMALL,Medical,Protection,Gloves,ANSELL PERRY INC,ANSELL PERRY INC,50,Case,"Room Temperature, Do Not Freeze",5,GLOVE CUT-RESISTANT SMALL,40,Model Number,5789911,,,,,noimage.jpg,,,,,,,
GLOVE CUT-RESISTANT MEDIUM,Medical,Protection,Gloves,ANSELL PERRY INC,ANSELL PERRY INC,50,Case,"Room Temperature, Do Not Freeze",5,GLOVE CUT-RESISTANT MEDIUM,40,Model Number,5789912,,,,,noimage.jpg,,,,,,,
GLOVE SURG LTX MEDIGRIP STRL 9,Medical,Protection,Gloves,ANSELL PERRY INC,ANSELL PERRY INC,50,Case,"Room Temperature, Do Not Freeze",200,GLOVE SURG LTX MEDIGRIP STRL 9,40,Model Number,8328,,,,,noimage.jpg,,,,,,,
GLOVE MED/LARGE  VHA,Medical,Protection,Gloves,ANSELL PERRY INC,ANSELL PERRY INC,50,Case,"Room Temperature, Do Not Freeze",20,GLOVE MED/LARGE  VHA,40,Model Number,7267,,,,,noimage.jpg,,,,,,,
GLOVE ATTENATION RADIATION 8 1/2,Medical,Protection,Gloves,ANSELL PERRY INC,ANSELL PERRY INC,50,Case,"Room Temperature, Do Not Freeze",5,GLOVE ATTENATION RADIATION 8 1/2,40,Model Number,5789036,,,,,noimage.jpg,,,,,,,
GLOVE EXAM LTX CONFORM SGL STRL LG,Medical,Protection,Gloves,ANSELL PERRY INC,ANSELL PERRY INC,50,Case,"Room Temperature, Do Not Freeze",400,GLOVE EXAM LTX CONFORM SGL STRL LG,40,Model Number,7892,,,,,noimage.jpg,,,,,,,
GLOVE AUTOPSY 8 1/2,Medical,Protection,Gloves,ANSELL PERRY INC,ANSELL PERRY INC,50,Case,"Room Temperature, Do Not Freeze",4,GLOVE AUTOPSY 8 1/2,40,Model Number,5720116,,,,,noimage.jpg,,,,,,,
GLOVE EXAM LTX REG C N/S VHA SMALL,Medical,Protection,Gloves,ANSELL PERRY INC,ANSELL PERRY INC,50,Case,"Room Temperature, Do Not Freeze",20,GLOVE EXAM LTX REG C N/S VHA SMALL,40,Model Number,7856,,,,,noimage.jpg,,,,,,,
GLOVE AMBIDEXTROUS PROCEDURE MED,Medical,Protection,Gloves,ANSELL PERRY INC,ANSELL PERRY INC,50,Case,"Room Temperature, Do Not Freeze",200,GLOVE AMBIDEXTROUS PROCEDURE MED,40,Model Number,5761402,,,,,noimage.jpg,,,,,,,
GLOVE NITRA LG,Medical,Protection,Gloves,ANSELL PERRY INC,ANSELL PERRY INC,50,Case,"Room Temperature, Do Not Freeze",500,GLOVE NITRA LG,40,Model Number,3443,,,,,noimage.jpg,,,,,,,
GLOVE EXAM NITRATE NON STRL XL,Medical,Protection,Gloves,ANSELL PERRY INC,ANSELL PERRY INC,50,Case,"Room Temperature, Do Not Freeze",10,GLOVE EXAM NITRATE NON STRL XL,40,Model Number,3554,,,,,noimage.jpg,,,,,,,
GLOVE DERMACLEAN X-AMPF SINGLES LG,Medical,Protection,Gloves,ANSELL PERRY INC,ANSELL PERRY INC,50,Case,"Room Temperature, Do Not Freeze",400,GLOVE DERMACLEAN X-AMPF SINGLES LG,40,Model Number,3283,,,,,noimage.jpg,,,,,,,
GLOVE UTILITY LARGE,Medical,Protection,Gloves,ANSELL PERRY INC,ANSELL PERRY INC,50,Case,"Room Temperature, Do Not Freeze",48,GLOVE UTILITY LARGE,40,Model Number,89017,,,,,noimage.jpg,,,,,,,
GLOVE AUTOPSY XHVY N/S SZ 8,Medical,Protection,Gloves,ANSELL PERRY INC,ANSELL PERRY INC,50,Case,"Room Temperature, Do Not Freeze",4,GLOVE AUTOPSY XHVY N/S SZ 8,40,Model Number,5720115,,,,,noimage.jpg,,,,,,,
GLOVE EXAM NEW TOUCH POW SYNTHE L,Medical,Protection,Gloves,ANSELL PERRY INC,ANSELL PERRY INC,50,Case,"Room Temperature, Do Not Freeze",10,GLOVE EXAM NEW TOUCH POW SYNTHE L,40,Model Number,2083,,,,,noimage.jpg,,,,,,,
TUBING PENROSE STERILE 18X3/4,Medical,Protection,Gloves,ANSELL PERRY INC,ANSELL PERRY INC,50,Case,"Room Temperature, Do Not Freeze",200,TUBING PENROSE STERILE 18X3/4,40,Model Number,5771126,,,,,noimage.jpg,,,,,,,
GLOVE SURG LTX BRN STRL SZ 7 1/2,Medical,Protection,Gloves,ANSELL PERRY INC,ANSELL PERRY INC,50,Case,"Room Temperature, Do Not Freeze",200,GLOVE SURG LTX BRN STRL SZ 7 1/2,40,Model Number,5711114,,,,,noimage.jpg,,,,,,,
GLOVE SURG LTX C BRN STRL SZ 8 1/2,Medical,Protection,Gloves,ANSELL PERRY INC,ANSELL PERRY INC,50,Case,"Room Temperature, Do Not Freeze",200,GLOVE SURG LTX C BRN STRL SZ 8 1/2,40,Model Number,5711116,,,,,noimage.jpg,,,,,,,
"TUBING PENROSE STERILE 12     1/2""",Medical,Protection,Gloves,ANSELL PERRY INC,ANSELL PERRY INC,50,Case,"Room Temperature, Do Not Freeze",200,"TUBING PENROSE STERILE 12     1/2""",40,Model Number,5771114,,,,,noimage.jpg,,,,,,,
"TUBING PENROSE STERILE 12   3/4""",Medical,Protection,Gloves,ANSELL PERRY INC,ANSELL PERRY INC,50,Case,"Room Temperature, Do Not Freeze",4,"TUBING PENROSE STERILE 12   3/4""",40,Model Number,5771116,,,,,noimage.jpg,,,,,,,
"TUBING PENROSE STERILE 12    1""",Medical,Protection,Gloves,ANSELL PERRY INC,ANSELL PERRY INC,50,Case,"Room Temperature, Do Not Freeze",4,"TUBING PENROSE STERILE 12    1""",40,Model Number,5771118,,,,,noimage.jpg,,,,,,,
GLVOES UTILITY 7-7.5,Medical,Protection,Gloves,ANSELL PERRY INC,ANSELL PERRY INC,50,Case,"Room Temperature, Do Not Freeze",4,GLVOES UTILITY 7-7.5,40,Model Number,89016,,,,,noimage.jpg,,,,,,,
GLOVE ORTHO PF MAXXUS SZ 6.5,Medical,Protection,Gloves,ANSELL PERRY INC,ANSELL PERRY INC,50,Case,"Room Temperature, Do Not Freeze",2,GLOVE ORTHO PF MAXXUS SZ 6.5,40,Model Number,3965,,,,,noimage.jpg,,,,,,,
TUBING 613 SZ 1/4,Medical,Protection,Gloves,ANSELL PERRY INC,ANSELL PERRY INC,50,Case,"Room Temperature, Do Not Freeze",1,TUBING 613 SZ 1/4,40,Model Number,5770821,,,,,noimage.jpg,,,,,,,
GLOVE SURG LTX C WHT STRL SZ 5-1/2,Medical,Protection,Gloves,ANSELL PERRY INC,ANSELL PERRY INC,50,Case,"Room Temperature, Do Not Freeze",200,GLOVE SURG LTX C WHT STRL SZ 5-1/2,40,Model Number,5711100,,,,,noimage.jpg,,,,,,,
GLOVE SURG LTX C WHT STRL,Medical,Protection,Gloves,ANSELL PERRY INC,ANSELL PERRY INC,50,Case,"Room Temperature, Do Not Freeze",200,GLOVE SURG LTX C WHT STRL,40,Model Number,5711107,,,,,noimage.jpg,,,,,,,
GLOVE EXAM LTX C N/S VHA SM/MD,Medical,Protection,Gloves,ANSELL PERRY INC,ANSELL PERRY INC,50,Case,"Room Temperature, Do Not Freeze",20,GLOVE EXAM LTX C N/S VHA SM/MD,40,Model Number,7266,,,,,noimage.jpg,,,,,,,
TUBING PENROSE 3/4 N/S X-RAY OPQ,Medical,Protection,Gloves,ANSELL PERRY INC,ANSELL PERRY INC,50,Case,"Room Temperature, Do Not Freeze",25,TUBING PENROSE 3/4 N/S X-RAY OPQ,40,Model Number,5770826,,,,,noimage.jpg,,,,,,,
GLOVE SURG LTX SENSI-TOUCH STRL6,Medical,Protection,Gloves,ANSELL PERRY INC,ANSELL PERRY INC,50,Case,"Room Temperature, Do Not Freeze",200,GLOVE SURG LTX SENSI-TOUCH STRL6,40,Model Number,7822,,,,,noimage.jpg,,,,,,,
GLOVE EXAM CONFORM NL PF SYNTHE M,Medical,Protection,Gloves,ANSELL PERRY INC,ANSELL PERRY INC,50,Case,"Room Temperature, Do Not Freeze",10,GLOVE EXAM CONFORM NL PF SYNTHE M,40,Model Number,3102,,,,,noimage.jpg,,,,,,,
GLOVE PROCD MED LTX WHT STRL 7 1/2,Medical,Protection,Gloves,ANSELL PERRY INC,ANSELL PERRY INC,50,Case,"Room Temperature, Do Not Freeze",200,GLOVE PROCD MED LTX WHT STRL 7 1/2,40,Model Number,5719704,,,,,noimage.jpg,,,,,,,
GLOVE PROCD LTX CONFORM STRL 7 1/2,Medical,Protection,Gloves,ANSELL PERRY INC,ANSELL PERRY INC,50,Case,"Room Temperature, Do Not Freeze",200,GLOVE PROCD LTX CONFORM STRL 7 1/2,40,Model Number,7872,,,,,noimage.jpg,,,,,,,
GLOVE PROCD LTX CONFORM STRL 8,Medical,Protection,Gloves,ANSELL PERRY INC,ANSELL PERRY INC,50,Case,"Room Temperature, Do Not Freeze",200,GLOVE PROCD LTX CONFORM STRL 8,40,Model Number,7873,,,,,noimage.jpg,,,,,,,
GLOVE EXAM LATEX P/F N/S X-LGE,Medical,Protection,Gloves,ANSELL PERRY INC,ANSELL PERRY INC,50,Case,"Room Temperature, Do Not Freeze",10,GLOVE EXAM LATEX P/F N/S X-LGE,40,Model Number,5008,,,,,noimage.jpg,,,,,,,
GLOVE MICRO-TOUCH ULTRA PF EXAM XS,Medical,Protection,Gloves,ANSELL PERRY INC,ANSELL PERRY INC,50,Case,"Room Temperature, Do Not Freeze",10,GLOVE MICRO-TOUCH ULTRA PF EXAM XS,40,Model Number,5320,,,,,noimage.jpg,,,,,,,
GLOVE AUTOPSY EHVY N/S SZ 6-1/2,Medical,Protection,Gloves,ANSELL PERRY INC,ANSELL PERRY INC,50,Case,"Room Temperature, Do Not Freeze",4,GLOVE AUTOPSY EHVY N/S SZ 6-1/2,40,Model Number,5720112,,,,,noimage.jpg,,,,,,,
GLOVE EXAM NEW TOUCH POW SYNTHE S,Medical,Protection,Gloves,ANSELL PERRY INC,ANSELL PERRY INC,50,Case,"Room Temperature, Do Not Freeze",10,GLOVE EXAM NEW TOUCH POW SYNTHE S,40,Model Number,2081,,,,,noimage.jpg,,,,,,,
GLOVE EXAM NEW TOUCH POW SYNTHE M,Medical,Protection,Gloves,ANSELL PERRY INC,ANSELL PERRY INC,50,Case,"Room Temperature, Do Not Freeze",10,GLOVE EXAM NEW TOUCH POW SYNTHE M,40,Model Number,2082,,,,,noimage.jpg,,,,,,,
GLOVE EXAM NEW TOUCH POW SYNTHE XL,Medical,Protection,Gloves,ANSELL PERRY INC,ANSELL PERRY INC,50,Case,"Room Temperature, Do Not Freeze",10,GLOVE EXAM NEW TOUCH POW SYNTHE XL,40,Model Number,2084,,,,,noimage.jpg,,,,,,,
GLOVES CONFORM LTC POWDERED EXAM MD,Medical,Protection,Gloves,ANSELL PERRY INC,ANSELL PERRY INC,50,Case,"Room Temperature, Do Not Freeze",1000,GLOVES CONFORM LTC POWDERED EXAM MD,40,Model Number,3112,,,,,noimage.jpg,,,,,,,
